spawns	name	room	loc_x	loc_y	loc_z	yaw	script	mood	animation_mood	respawn_time	spawn_objvar	special_room	special_room_script	room_objvar	room_objvar_name	room_objvar_value	planet_level
s	s	s	f	f	f	f	s	s	s	i	s	s	s	s	s	s	i[0]
singing_mtn_clan_scout		world	7436.271973	549.6482544	-3031.612549	-100	theme_park.dungeon.generic_death	nervous		3600	int:ai.defaultCalmBehavior=1						1
singing_mountain_clan_rancor		world	7439.004883	548.8052368	-3043.889648	-50	theme_park.dungeon.generic_death			3600	int:ai.defaultCalmBehavior=1						1
